[gd_scene load_steps=4 format=3 uid="uid://cfbabvr0w2qpx"]

[ext_resource type="Texture2D" uid="uid://c84hh2yp70ps0" path="res://asset/img/pinkCrystalights.png" id="1_d0gew"]
[ext_resource type="Texture2D" uid="uid://dj4ed4enygj2p" path="res://asset/img/EverSince_Logo20221027_variant0_002-b.png" id="3_vjqca"]
[ext_resource type="Texture2D" uid="uid://dc0qwxneo7y0q" path="res://asset/img/TheVhirlmesz_next_002.png" id="4_kdhr6"]

[node name="Background" type="Node2D"]

[node name="BackgroundSprite" type="Sprite2D" parent="."]
show_behind_parent = true
position = Vector2(576, 324)
scale = Vector2(1.01141, 0.955752)
texture = ExtResource("1_d0gew")
region_enabled = true
region_rect = Rect2(1078, 463, 1139, 678)

[node name="EverSinceTitle" type="Sprite2D" parent="."]
position = Vector2(321, 155)
texture = ExtResource("3_vjqca")

[node name="Sprite2D" type="Sprite2D" parent="."]
position = Vector2(1187, 315)
scale = Vector2(1.70313, 1.95117)
texture = ExtResource("4_kdhr6")
