[gd_scene load_steps=5 format=3 uid="uid://bmctuty6tg4ub"]

[ext_resource type="Script" path="res://core/logic/ever_since.gd" id="1_8x450"]
[ext_resource type="PackedScene" uid="uid://ea1ii7c7vnd4" path="res://core/interface/paddle.tscn" id="2_w6n7s"]
[ext_resource type="PackedScene" uid="uid://42vndst2cvnf" path="res://core/interface/ball.tscn" id="3_pwgfc"]
[ext_resource type="PackedScene" uid="uid://cpwuutn5un01e" path="res://core/interface/wall.tscn" id="3_yyj0a"]

[node name="Main" type="Node"]
script = ExtResource("1_8x450")

[node name="Camera" type="Camera2D" parent="."]
anchor_mode = 0
current = true

[node name="Wall" parent="." instance=ExtResource("3_yyj0a")]
position = Vector2(576, 0)

[node name="Wall2" parent="." instance=ExtResource("3_yyj0a")]
position = Vector2(576, 648)

[node name="Wall3" parent="." instance=ExtResource("3_yyj0a")]
position = Vector2(1183, 320)
rotation = -1.57079

[node name="Wall4" parent="." instance=ExtResource("3_yyj0a")]
position = Vector2(-34, 320)
rotation = -1.57079

[node name="Paddle" parent="." instance=ExtResource("2_w6n7s")]
modulate = Color(1, 0, 0.825563, 1)
position = Vector2(1118, 323)
speed = 100.0

[node name="Paddle2" parent="." instance=ExtResource("2_w6n7s")]
modulate = Color(0.431373, 0.576471, 1, 1)
position = Vector2(32, 320)
speed = 50.0

[node name="Ball" parent="." instance=ExtResource("3_pwgfc")]
position = Vector2(593, 323)
