[gd_resource type="Theme" load_steps=2 format=3 uid="uid://8f3laj5t3eo3"]

[ext_resource type="SystemFont" uid="uid://cbv6mfxig61vg" path="res://tool/menu_generic_system_font.tres" id="1_ttbbl"]

[resource]
default_font = ExtResource("1_ttbbl")
